PCA: Group 03
…
Patients with most amount diagnoses

max_dia <- aug_data |> 
  summarise(max(number_diagnoses)) |> 
  pull()

aug_data |> 
  distinct(patient_nbr, number_diagnoses) |> 
  filter(number_diagnoses == max_dia)

# A tibble: 45 × 2
   patient_nbr number_diagnoses
         <dbl>            <dbl>
 1    30577455               16
 2    31059126               16
 3    37748088               16
 4    38158101               16
 5    40595031               16
 6    40634091               16
 7    40851090               16
 8    41015448               16
 9    41164047               16
10    41306769               16
# ℹ 35 more rows
…
Now we extract the rotation matrix

pca_fit |> 
  tidy(matrix = "rotation")

# A tibble: 144 × 3
   column          PC    value
   <chr>        <dbl>    <dbl>
 1 encounter_id     1  0.0920 
 2 encounter_id     2 -0.113  
 3 encounter_id     3  0.616  
 4 encounter_id     4 -0.00514
 5 encounter_id     5 -0.200  
 6 encounter_id     6  0.0289 
 7 encounter_id     7  0.166  
 8 encounter_id     8  0.0607 
 9 encounter_id     9 -0.504  
10 encounter_id    10  0.327  
# ℹ 134 more rows
…
