PCA: Group 03
…
Now we extract the rotation matrix

pca_fit |> 
  tidy(matrix = "rotation")

# A tibble: 144 × 3
   column          PC    value
   <chr>        <dbl>    <dbl>
 1 encounter_id     1  0.0920 
 2 encounter_id     2 -0.113  
 3 encounter_id     3  0.616  
 4 encounter_id     4 -0.00514
 5 encounter_id     5  0.200  
 6 encounter_id     6 -0.0289 
 7 encounter_id     7  0.166  
 8 encounter_id     8  0.0607 
 9 encounter_id     9  0.504  
10 encounter_id    10 -0.327  
# ℹ 134 more rows
…
